{
    "0": {
        "pergunta": "Confortar pessoas, refletir sobre a condição humana",
        "0": [
            "Sermão religioso",
            "Palestra",
            "Editorial",
            0
        ],
        "1": [
			"Tirinha",
            "Provérbios",
            "Entrevista",
            1
        ],
        "2": [
            "Debate",
            "Artigo de opinião",
            "Cartum",
            2  
        ]
    },
    "1": {
        "pergunta": "Autopromover-se apresentando uma imagem positiva de si mesmo",
        "0": [
            "Sermão religioso",
            "Palestra",
            "Editorial",
            1
        ],
        "1": [
            "Artigo de opinião",
            "Provérbios",
            "Entrevista",
            2
        ],
        "2": [
            "Debate",
            "Tirinha",
            "Cartum",
            0  
        ]
    },
    "2": {
        "pergunta": "Criticar e Avaliar atores sociais e instituições da vida pública",
        "0": [
            "Sermão religioso",
            "Palestra",
            "Editorial",
            2
        ],
        "1": [
			"Tirinha",
            "Provérbios",
            "Entrevista",
            0
        ],
        "2": [
            "Debate",
            "Artigo de opinião",
            "Cartum",
            1  
        ]
    }

}