{
    "0": {
        "pergunta": "O(A) aluno(a) tem o dever, sem prejuízo do disposto no artigo 40.o...",
        "alternativa": [
            "Estatuto escolar",
            "Conto de fadas",
            "Receita culinária",
            "Notícia"
        ],
        "correta": 0
    },
    "1": {
        "pergunta": "MISTO QUENTE DE FORNO À MINHA MODA",
        "alternativa": [
            "Telefonema",
            "Receita Culinária",
            "Estatuto Escolar",
            "Conto de fadas"
        ],
        "correta": 1
    },
    "2": {
        "pergunta": "Era uma vez um casal...",
        "alternativa": [
            "Notícia",
            "Estatuto Escolar",
            "Conto de fadas",
            "Telefonema"
        ],
        "correta": 2
    },
    "3": {
        "pergunta": "Instagram começa testes para ocultar número de curtidas no Brasil",
        "alternativa": [
            "Conto de fadas",
            "Telefonema",
            "Estatuto escolar",
            "Notícia"
        ],
        "correta": 3
    },
    "4": {
        "pergunta": "Alô? Chico? Tudo bom, cara?",
        "alternativa": [
            "Receita Culinária",
            "Notícia",
            "Telefonema",
            "Conto de fadas"
        ],
        "correta": 2
    }
}